<?xml version="1.0" standalone="no"?>
<!DOCTYPE svg PUBLIC "-//W3C//DTD SVG 20010904//EN"
 "http://www.w3.org/TR/2001/REC-SVG-20010904/DTD/svg10.dtd">
<svg version="1.0" xmlns="http://www.w3.org/2000/svg"
 width="700.000000pt" height="700.000000pt" viewBox="0 0 700.000000 700.000000"
 preserveAspectRatio="xMidYMid meet">
<metadata>
Created by potrace 1.11, written by Peter Selinger 2001-2013
</metadata>
<g transform="translate(0.000000,700.000000) scale(0.100000,-0.100000)"
fill="#000000" stroke="none">
<path d="M3102 4436 c-4 -7 -7 -1621 -3 -1768 l1 -27 148 2 147 2 1 690 c1
380 2 695 3 700 1 10 137 12 147 2 3 -3 6 -318 6 -700 l-1 -694 142 -1 c78 0
150 1 159 4 15 5 17 57 17 695 0 380 2 693 5 696 8 8 85 10 121 3 l30 -6 0
-694 0 -695 158 -1 157 -2 0 902 0 901 -616 0 c-371 0 -618 -3 -622 -9z"/>
<path d="M4429 4445 c0 0 0 -1720 0 -1766 l1 -36 620 0 620 0 0 901 0 901
-620 0 c-341 0 -620 0 -621 0z m872 -435 c4 -78 1 -902 -4 -906 -3 -4 -109 -7
-234 -7 l-228 0 -3 454 c-1 250 0 459 2 464 2 6 89 10 235 10 198 0 231 -2
232 -15z"/>
<path d="M5762 4436 c-5 -8 -8 -1681 -3 -1777 1 -14 63 -16 621 -16 l620 0 0
902 0 901 -615 0 c-423 0 -618 -3 -623 -10z m888 -603 l0 -193 -280 0 -280 0
0 188 c0 104 2 191 4 193 3 2 129 4 280 4 l276 0 0 -192z m0 -527 l0 -193
-157 3 c-87 2 -209 4 -271 5 -62 1 -116 7 -119 12 -3 5 -8 90 -10 188 l-5 179
281 0 281 0 0 -194z"/>
<path d="M297 4434 c-2 -2 -69 -4 -150 -5 l-147 -1 4 -836 c3 -461 5 -864 5
-898 l1 -61 593 1 592 1 0 200 0 200 -65 2 c-36 1 -212 3 -393 5 -281 3 -328
5 -331 18 -2 8 -4 274 -5 590 -1 591 -4 767 -14 776 -6 6 -85 13 -90 8z"/>
<path d="M1368 4430 c-31 -3 -60 -8 -63 -12 -4 -4 -6 -346 -6 -760 2 -998 2
-991 7 -1009 4 -13 29 -15 184 -15 l180 -1 0 899 0 898 -87 1 c-49 0 -104 1
-123 2 -19 1 -61 0 -92 -3z"/>
<path d="M1808 4432 l-36 -3 -2 -397 c-1 -370 -2 -1309 -1 -1377 l1 -30 155 0
c131 0 155 2 156 15 0 8 1 322 1 698 1 375 4 683 7 683 3 1 32 2 64 4 44 1 60
-2 64 -13 3 -8 6 -323 7 -701 l1 -686 140 2 c77 1 251 2 388 3 l247 1 1 37 c0
39 0 1659 -1 1725 l0 37 -140 0 -140 0 -1 -127 c-1 -250 -8 -1278 -8 -1294 -1
-14 -13 -17 -70 -16 l-69 0 0 681 c-1 375 -1 699 -1 722 l-1 41 -362 -1 c-200
-1 -380 -2 -400 -4z"/>
</g>
</svg>
